module bitbucket.org/sunybingcloud/dt-profiler-runner

go 1.15

require (
	github.com/Microsoft/go-winio v0.4.16 // indirect
	github.com/containerd/containerd v1.4.3 // indirect
	github.com/docker/distribution v2.7.1+incompatible // indirect
	github.com/docker/docker v20.10.3+incompatible
	github.com/docker/go-connections v0.4.0 // indirect
	github.com/docker/go-units v0.4.0 // indirect
	github.com/opencontainers/go-digest v1.0.0 // indirect
	github.com/opencontainers/image-spec v1.0.1 // indirect
	github.com/pradykaushik/task-ranker v0.8.1-0.20210510215921-8caea6091761
	google.golang.org/grpc v1.35.0 // indirect
)
